%!PS-Adobe-3.0 EPSF-3.0
%%Title: ./components.fig
%%Creator: fig2dev Version 3.2.8b
%%CreationDate: 2024-01-13 20:29:46
%%BoundingBox: 0 0 382 350
%%Magnification: 1.0000
%%EndComments
%%BeginProlog
/$F2psDict 200 dict def
$F2psDict begin
$F2psDict /mtrx matrix put
/col-1 {0 setgray} bind def
/col0 {0.000 0.000 0.000 srgb} bind def
/col7 {1.000 1.000 1.000 srgb} bind def

end

/cp {closepath} bind def
/ef {eofill} bind def
/gr {grestore} bind def
/gs {gsave} bind def
/sa {save} bind def
/rs {restore} bind def
/l {lineto} bind def
/rl {rlineto} bind def
/m {moveto} bind def
/rm {rmoveto} bind def
/n {newpath} bind def
/s {stroke} bind def
/sh {show} bind def
/slc {setlinecap} bind def
/slj {setlinejoin} bind def
/slw {setlinewidth} bind def
/srgb {setrgbcolor} bind def
/rot {rotate} bind def
/sc {scale} bind def
/sd {setdash} bind def
/ff {findfont} bind def
/sf {setfont} bind def
/scf {scalefont} bind def
/sw {stringwidth} bind def
/tr {translate} bind def
/tnt {dup dup currentrgbcolor
  4 -2 roll dup 1 exch sub 3 -1 roll mul add
  4 -2 roll dup 1 exch sub 3 -1 roll mul add
  4 -2 roll dup 1 exch sub 3 -1 roll mul add srgb}
  bind def
/shd {dup dup currentrgbcolor 4 -2 roll mul 4 -2 roll mul
  4 -2 roll mul srgb} bind def
/xfig_image {image Data flushfile} def
/$F2psBegin {$F2psDict begin /$F2psEnteredState save def} def
/$F2psEnd {$F2psEnteredState restore end} def

/pageheader {
sa
n 0 350 m 0 0 l 382 0 l 382 350 l cp clip
-47.4 405.1 tr
1 -1 sc
$F2psBegin
10 setmiterlimit
0 slj 0 slc
 0.06299 0.06299 sc
} bind def
/pagefooter {
$F2psEnd
restore
} bind def
%%EndProlog
pageheader
%
% Fig objects follow
%
% 
% here starts figure with depth 50
% Polyline
0 slj
0 slc
7.500 slw
n 3355 1845 m 3295 1845 3295 2235 60 arcto 4 {pop} repeat
  3295 2295 4609 2295 60 arcto 4 {pop} repeat
  4669 2295 4669 1905 60 arcto 4 {pop} repeat
  4669 1845 3355 1845 60 arcto 4 {pop} repeat
 cp gs col0 s gr /Helvetica ff 165.00 scf sf
3600 2107 m
gs 1 -1 sc (Nameprep) col0 sh gr
% Polyline
n 2663 1845 m 2618 1845 2618 2250 45 arcto 4 {pop} repeat
  2618 2295 3141 2295 45 arcto 4 {pop} repeat
  3186 2295 3186 1890 45 arcto 4 {pop} repeat
  3186 1845 2663 1845 45 arcto 4 {pop} repeat
 cp gs col0 s gr /Helvetica ff 165.00 scf sf
2700 2130 m
gs 1 -1 sc (iSCSI) col0 sh gr
% Polyline
n 1988 1845 m 1943 1845 1943 2250 45 arcto 4 {pop} repeat
  1943 2295 2467 2295 45 arcto 4 {pop} repeat
  2512 2295 2512 1890 45 arcto 4 {pop} repeat
  2512 1845 1988 1845 45 arcto 4 {pop} repeat
 cp gs col0 s gr /Helvetica ff 165.00 scf sf
2025 2130 m
gs 1 -1 sc (SASL) col0 sh gr
% Polyline
n 1313 1845 m 1268 1845 1268 2250 45 arcto 4 {pop} repeat
  1268 2295 1792 2295 45 arcto 4 {pop} repeat
  1837 2295 1837 1890 45 arcto 4 {pop} repeat
  1837 1845 1313 1845 45 arcto 4 {pop} repeat
 cp gs col0 s gr /Helvetica ff 165.00 scf sf
1327 2130 m
gs 1 -1 sc (XMPP) col0 sh gr
% Polyline
n 870 4560 m 810 4560 810 5099 60 arcto 4 {pop} repeat
  810 5159 6735 5159 60 arcto 4 {pop} repeat
  6795 5159 6795 4620 60 arcto 4 {pop} repeat
  6795 4560 870 4560 60 arcto 4 {pop} repeat
 cp gs col0 s gr /Helvetica-Bold ff 165.00 scf sf
3150 4905 m
gs 1 -1 sc (GNU IDN Library) col0 sh gr
% Polyline
n 4065 2837 m 4005 2837 4005 3448 60 arcto 4 {pop} repeat
  4005 3508 5790 3508 60 arcto 4 {pop} repeat
  5850 3508 5850 2897 60 arcto 4 {pop} repeat
  5850 2837 4065 2837 60 arcto 4 {pop} repeat
 cp gs col0 s gr /Helvetica ff 150.00 scf sf
4751 3227 m
gs 1 -1 sc (IDNA) col0 sh gr
% Polyline
n 4110 900 m 4050 900 4050 1338 60 arcto 4 {pop} repeat
  4050 1398 5520 1398 60 arcto 4 {pop} repeat
  5580 1398 5580 960 60 arcto 4 {pop} repeat
  5580 900 4110 900 60 arcto 4 {pop} repeat
 cp gs col0 s gr /Helvetica ff 165.00 scf sf
4455 1215 m
gs 1 -1 sc (Punycode) col0 sh gr
% Polyline
gs  clippath
2887 1855 m 2873 1855 l 2864 1769 l 2896 1769 l cp
eoclip
n 2880 1398 m
 2880 1848 l gs col0 s gr gr
% arrowhead
n 2864 1769 m 2880 1832 l 2896 1769 l 2864 1769 l  cp gs 0.00 setgray ef gr  col0 s
% Polyline
gs  clippath
3697 1855 m 3683 1855 l 3674 1769 l 3706 1769 l cp
eoclip
n 3690 1395 m
 3690 1848 l gs col0 s gr gr
% arrowhead
n 3674 1769 m 3690 1832 l 3706 1769 l 3674 1769 l  cp gs 0.00 setgray ef gr  col0 s
% Polyline
gs  clippath
2887 4580 m 2873 4580 l 2864 4494 l 2896 4494 l cp
eoclip
n 2880 2298 m
 2880 4573 l gs col0 s gr gr
% arrowhead
n 2864 4494 m 2880 4557 l 2896 4494 l 2864 4494 l  cp gs 0.00 setgray ef gr  col0 s
% Polyline
gs  clippath
2167 4580 m 2153 4580 l 2144 4494 l 2176 4494 l cp
eoclip
n 2160 2298 m
 2160 4573 l gs col0 s gr gr
% arrowhead
n 2144 4494 m 2160 4557 l 2176 4494 l 2144 4494 l  cp gs 0.00 setgray ef gr  col0 s
% Polyline
gs  clippath
1537 4580 m 1523 4580 l 1514 4494 l 1546 4494 l cp
eoclip
n 1530 2298 m
 1530 4573 l gs col0 s gr gr
% arrowhead
n 1514 4494 m 1530 4557 l 1546 4494 l 1514 4494 l  cp gs 0.00 setgray ef gr  col0 s
% Polyline
gs  clippath
1042 4580 m 1028 4580 l 1019 4494 l 1051 4494 l cp
eoclip
n 1035 1398 m
 1035 4573 l gs col0 s gr gr
% arrowhead
n 1019 4494 m 1035 4557 l 1051 4494 l 1019 4494 l  cp gs 0.00 setgray ef gr  col0 s
% Polyline
gs  clippath
1537 1855 m 1523 1855 l 1514 1769 l 1546 1769 l cp
eoclip
n 1530 1398 m
 1530 1848 l gs col0 s gr gr
% arrowhead
n 1514 1769 m 1530 1832 l 1546 1769 l 1514 1769 l  cp gs 0.00 setgray ef gr  col0 s
% Polyline
gs  clippath
2212 1855 m 2198 1855 l 2189 1769 l 2221 1769 l cp
eoclip
n 2205 1398 m
 2205 1848 l gs col0 s gr gr
% arrowhead
n 2189 1769 m 2205 1832 l 2221 1769 l 2189 1769 l  cp gs 0.00 setgray ef gr  col0 s
% Polyline
gs  clippath
3562 4580 m 3548 4580 l 3539 4494 l 3571 4494 l cp
eoclip
n 3555 2298 m
 3555 4573 l gs col0 s gr gr
% arrowhead
n 3539 4494 m 3555 4557 l 3571 4494 l 3539 4494 l  cp gs 0.00 setgray ef gr  col0 s
% Polyline
gs  clippath
4912 4580 m 4898 4580 l 4889 4494 l 4921 4494 l cp
eoclip
n 4905 3506 m
 4905 4573 l gs col0 s gr gr
% arrowhead
n 4889 4494 m 4905 4557 l 4921 4494 l 4889 4494 l  cp gs 0.00 setgray ef gr  col0 s
% Polyline
 [15 45] 45 sd
n 870 5820 m 810 5820 810 6359 60 arcto 4 {pop} repeat
  810 6419 6735 6419 60 arcto 4 {pop} repeat
  6795 6419 6795 5880 60 arcto 4 {pop} repeat
  6795 5820 870 5820 60 arcto 4 {pop} repeat
 cp gs col0 s gr  [] 0 sd
% Polyline
 [15 45] 45 sd
gs  clippath
3742 5812 m 3728 5812 l 3705 5669 l 3765 5669 l cp
3728 5168 m 3742 5168 l 3765 5311 l 3705 5311 l cp
eoclip
n 3735 5175 m
 3735 5805 l gs col0 s gr gr
 [] 0 sd
% arrowhead
n 3765 5311 m 3735 5191 l 3705 5311 l 3765 5311 l  cp gs col7 1.00 shd ef gr  col0 s
% arrowhead
n 3705 5669 m 3735 5789 l 3765 5669 l 3705 5669 l  cp gs col7 1.00 shd ef gr  col0 s
% Polyline
n 840 900 m 765 900 765 1323 75 arcto 4 {pop} repeat
  765 1398 3841 1398 75 arcto 4 {pop} repeat
  3916 1398 3916 975 75 arcto 4 {pop} repeat
  3916 900 840 900 75 arcto 4 {pop} repeat
 cp gs col0 s gr % Polyline
gs  clippath
4372 2842 m 4358 2842 l 4349 2756 l 4381 2756 l cp
eoclip
n 4365 2277 m
 4365 2835 l gs col0 s gr gr
% arrowhead
n 4349 2756 m 4365 2819 l 4381 2756 l 4349 2756 l  cp gs 0.00 setgray ef gr  col0 s
% Polyline
gs  clippath
4867 2870 m 4853 2870 l 4844 2784 l 4876 2784 l cp
eoclip
n 4860 1395 m
 4860 2863 l gs col0 s gr gr
% arrowhead
n 4844 2784 m 4860 2847 l 4876 2784 l 4844 2784 l  cp gs 0.00 setgray ef gr  col0 s
% Polyline
n 5715 900 m 5670 900 5670 1350 45 arcto 4 {pop} repeat
  5670 1395 6750 1395 45 arcto 4 {pop} repeat
  6795 1395 6795 945 45 arcto 4 {pop} repeat
  6795 900 5715 900 45 arcto 4 {pop} repeat
 cp gs col0 s gr % Polyline
gs  clippath
6172 4580 m 6158 4580 l 6149 4494 l 6181 4494 l cp
eoclip
n 6165 1398 m
 6165 4573 l gs col0 s gr gr
% arrowhead
n 6149 4494 m 6165 4557 l 6181 4494 l 6149 4494 l  cp gs 0.00 setgray ef gr  col0 s
/Helvetica ff 165.00 scf sf
3345 6157 m
gs 1 -1 sc (Application) col0 sh gr
/Helvetica ff 165.00 scf sf
1935 1215 m
gs 1 -1 sc (StringPrep) col0 sh gr
/Helvetica ff 165.00 scf sf
6075 1170 m
gs 1 -1 sc (TLD) col0 sh gr
% here ends figure;
pagefooter
showpage
%%Trailer
%EOF
